(module 10104110-0001LF (layer F.Cu) (tedit 5702FB10)
  (descr "AMPHENOL FCI 10104110-0001LF")
  (tags "USB micro B Female")
  (fp_text reference conn_usb_B_micro_smd (at 0 2.7) (layer F.SilkS)
    (effects (font (size 0.50038 0.50038) (thickness 0.09906)))
  )
  (fp_text value VAL** (at 0 -4.0005) (layer F.SilkS)
    (effects (font (size 0.50038 0.50038) (thickness 0.09906)))
  )
  (fp_line (start -3.9 -2.9) (end -3.9 2.2) (layer F.SilkS) (width 0.15))
  (fp_line (start 3.9 -2.9) (end 3.9 2.2) (layer F.SilkS) (width 0.15))
  (fp_line (start 3.9 2.2) (end -3.9 2.2) (layer F.SilkS) (width 0.15))
  (fp_line (start -4.20232 1.5) (end 4.2 1.5) (layer F.SilkS) (width 0.15))
  (fp_line (start -3.8989 -2.90068) (end 3.8989 -2.90068) (layer F.SilkS) (width 0.15))
  (pad 6 smd rect (at -1.2 0) (size 1.8 1.9) (layers F.Cu F.Paste F.Mask))
  (pad 6 smd rect (at 1.2 0) (size 1.8 1.9) (layers F.Cu F.Paste F.Mask))
  (pad 6 smd rect (at 3.4 0) (size 1.5 1.9) (layers F.Cu F.Paste F.Mask))
  (pad 6 smd rect (at -3.4 0) (size 1.5 1.9) (layers F.Cu F.Paste F.Mask))
  (pad 1 smd rect (at -1.3 -2.8) (size 0.4 1.4) (layers F.Cu F.Paste F.Mask))
  (pad 2 smd rect (at -0.65 -2.8) (size 0.4 1.4) (layers F.Cu F.Paste F.Mask))
  (pad 3 smd rect (at 0 -2.8) (size 0.4 1.4) (layers F.Cu F.Paste F.Mask))
  (pad 4 smd rect (at 0.65 -2.8) (size 0.4 1.4) (layers F.Cu F.Paste F.Mask))
  (pad 5 smd rect (at 1.3 -2.8) (size 0.4 1.4) (layers F.Cu F.Paste F.Mask))
  (model /home/xengi/projects/microftx/10104110-0001LF.wrl
    (at (xyz 0 0 0))
    (scale (xyz 1 1 1))
    (rotate (xyz 0 0 0))
  )
)
