(module Pin_Header_Straight_1x04 (layer F.Cu) (tedit 57042C9A)
  (descr "Through hole pin header")
  (tags "pin header")
  (fp_text reference VAL** (at 0 -2.4) (layer F.SilkS) hide
    (effects (font (size 1 1) (thickness 0.15)))
  )
  (fp_text value CONN_01X04 (at 0 10.1) (layer F.Fab)
    (effects (font (size 1 1) (thickness 0.15)))
  )
  (fp_line (start -1.75 -1.75) (end -1.75 9.35) (layer F.CrtYd) (width 0.05))
  (fp_line (start 1.75 -1.75) (end 1.75 9.35) (layer F.CrtYd) (width 0.05))
  (fp_line (start -1.75 -1.75) (end 1.75 -1.75) (layer F.CrtYd) (width 0.05))
  (fp_line (start -1.75 9.35) (end 1.75 9.35) (layer F.CrtYd) (width 0.05))
  (fp_line (start -1.3 -1.3) (end -1.3 8.9) (layer F.SilkS) (width 0.15))
  (fp_line (start 1.3 -1.3) (end 1.3 8.9) (layer F.SilkS) (width 0.15))
  (fp_line (start -1.3 8.9) (end 1.3 8.9) (layer F.SilkS) (width 0.15))
  (fp_line (start 1.3 -1.3) (end -1.3 -1.3) (layer F.SilkS) (width 0.15))
  (pad 2 thru_hole oval (at 0 2.54) (size 2.032 1.7272) (drill 1.016) (layers *.Cu *.Mask F.SilkS))
  (pad 3 thru_hole oval (at 0 5.08) (size 2.032 1.7272) (drill 1.016) (layers *.Cu *.Mask F.SilkS))
  (pad 4 thru_hole oval (at 0 7.62) (size 2.032 1.7272) (drill 1.016) (layers *.Cu *.Mask F.SilkS))
  (pad 1 thru_hole oval (at 0 0) (size 2.032 1.7272) (drill 1.016) (layers *.Cu *.Mask F.SilkS))
)
