(module Solder_Jumper (layer F.Cu) (tedit 57042DE8)
  (descr "Resistor SMD 0603, hand soldering")
  (tags "resistor 0603")
  (attr smd)
  (fp_text reference VAL** (at 0 -2.1) (layer F.SilkS)
    (effects (font (size 1 1) (thickness 0.15)))
  )
  (fp_text value Jumper_NO_Small (at 0 2.1) (layer F.Fab)
    (effects (font (size 1 1) (thickness 0.15)))
  )
  (fp_line (start -0.6 1) (end 0.6 1) (layer F.SilkS) (width 0.15))
  (fp_line (start -0.6 -1) (end 0.6 -1) (layer F.SilkS) (width 0.15))
  (fp_arc (start 0.6 0) (end 0.6 -1) (angle 180) (layer F.SilkS) (width 0.15))
  (fp_line (start 0 -1) (end 0 1) (layer F.SilkS) (width 0.15))
  (fp_arc (start -0.6 0) (end -0.6 1) (angle 180) (layer F.SilkS) (width 0.15))
  (fp_line (start -1.8 -1.2) (end 1.8 -1.2) (layer F.CrtYd) (width 0.05))
  (fp_line (start -1.8 1.2) (end 1.8 1.2) (layer F.CrtYd) (width 0.05))
  (fp_line (start -1.8 -1.2) (end -1.8 1.2) (layer F.CrtYd) (width 0.05))
  (fp_line (start 1.8 -1.2) (end 1.8 1.2) (layer F.CrtYd) (width 0.05))
  (pad 1 smd oval (at -0.7 0 90) (size 1.5 1.1) (layers F.Cu F.Paste F.Mask))
  (pad 2 smd oval (at 0.7 0 90) (size 1.5 1.1) (layers F.Cu F.Paste F.Mask))
  (model Resistors_SMD.3dshapes/R_0603_HandSoldering.wrl
    (at (xyz 0 0 0))
    (scale (xyz 1 1 1))
    (rotate (xyz 0 0 0))
  )
)
